\babel@toc {french}{}\relax 
\contentsline {section}{\numberline {1}Introduction}{3}{section.1}%
\contentsline {subsection}{\numberline {1.1}Contexte}{3}{subsection.1.1}%
\contentsline {subsection}{\numberline {1.2}Représentation du problème}{3}{subsection.1.2}%
\contentsline {subsection}{\numberline {1.3}Explication des résolutions}{3}{subsection.1.3}%
\contentsline {subsubsection}{\numberline {1.3.1}Résolution 1 :}{3}{subsubsection.1.3.1}%
\contentsline {subsubsection}{\numberline {1.3.2}Résolution 2 :}{3}{subsubsection.1.3.2}%
\contentsline {section}{\numberline {2}Résolution 1 :}{4}{section.2}%
\contentsline {section}{\numberline {3}Résolution 2 :}{11}{section.3}%
\contentsline {subsection}{\numberline {3.1}Principe de l'IA :}{11}{subsection.3.1}%
\contentsline {section}{\numberline {4}Conclusion}{23}{section.4}%
